…
    ## textLinnemanBot: Take ownership of your death, so do not love yourself, there is no reason others should love you

    ## textLinnemanBot: Stick to what you do not love yourself, there is no reason others should love you

    ## textLinnemanBot: There are very few things in life that can’t be fixed, so don’t take it personally if yours are strange and difficult; so don’t take it personally if yours are strange and difficult

    ## textLinnemanBot: Find out who you are If people don’t like it, that’s their problem

    ## textLinnemanBot: There are just a humble school teacher”

    ## textLinnemanBot: Life isn’t fair, so don’t take it personally if yours are strange and difficult

    ## textLinnemanBot: The machine is rarely the problem; the people you love

    ## # A tibble: 25 x 2
    ##    idRow textLinnemanBot                                                                                               
    ##    <int> <chr>                                                                                                         
    ##  1     1 "“What is the bet?” is the bet?” is the outcome of hard work every day; not a eureka experience"              
    ##  2     2 "Your job in life that can’t be fixed, so don’t go crazy when things break"                                   
    ##  3     3 "Putting profits before power will generally result in a life of power"                                       
    ##  4     4 "Members of the people you love"                                                                              
    ##  5     5 "Generosity is cheap over the long term, as you will never realize it was your fault; then ask how you feel a…
    ##  6     6 "Life isn’t fair, so don’t go crazy when things are unfair"                                                   
    ##  7     7 "“What is the right thing simply because it is what it is what it is the right thing simply because it is the…
    ##  8     8 "Just when you are doing something, and do it Then it is learned as you wrinkle"                              
    ##  9     9 "Let the people you love"                                                                                     
    ## 10    10 "Genius is the critical question"                                                                             
    ## # ... with 15 more rows
…
Look at corpus start-words

``` r
generate_start_words(markov_model = markov_model)
```

    ## # A tibble: 63 x 3
    ##    idSentence wordStart distanceCumulative
    ##         <int> <chr>                  <int>
    ##  1          1 There                      3
    ##  2          2 Travel,                    4
    ##  3          3 Genius                     5
    ##  4          4 Take                       9
    ##  5          5 You                       14
    ##  6          6 Analyze                   15
    ##  7          7 Careers                   16
    ##  8          8 Remember                  17
    ##  9          9 Be                        21
    ## 10         10 Life                      23
    ## # ... with 53 more rows
